<svg width="22" height="24" viewBox="0 0 22 24" fill="none" xmlns="http://www.w3.org/2000/svg">
<path d="M9.4325 3.85999L1.66833 18C1.50825 18.3024 1.42355 18.6453 1.42266 18.9945C1.42176 19.3437 1.5047 19.6871 1.66322 19.9905C1.82175 20.2939 2.05033 20.5467 2.32623 20.7238C2.60213 20.9009 2.91573 20.9962 3.23583 21H18.7642C19.0843 20.9962 19.3979 20.9009 19.6738 20.7238C19.9497 20.5467 20.1783 20.2939 20.3368 19.9905C20.4953 19.6871 20.5782 19.3437 20.5773 18.9945C20.5764 18.6453 20.4917 18.3024 20.3317 18L12.5675 3.85999C12.4041 3.5661 12.174 3.32311 11.8994 3.15447C11.6249 2.98584 11.3151 2.89725 11 2.89725C10.6849 2.89725 10.3751 2.98584 10.1006 3.15447C9.82601 3.32311 9.59592 3.5661 9.4325 3.85999V3.85999Z" stroke="#657285" stroke-width="2" stroke-linecap="round" stroke-linejoin="round"/>
<path d="M11 9V13" stroke="#657285" stroke-width="2" stroke-linecap="round" stroke-linejoin="round"/>
<path d="M11 17H11.01" stroke="#657285" stroke-width="2" stroke-linecap="round" stroke-linejoin="round"/>
</svg>
