<svg width="22" height="24" viewBox="0 0 22 24" fill="none" xmlns="http://www.w3.org/2000/svg">
<path d="M11 1C10.2707 1 9.57118 1.31607 9.05546 1.87868C8.53973 2.44129 8.25 3.20435 8.25 4V12C8.25 12.7956 8.53973 13.5587 9.05546 14.1213C9.57118 14.6839 10.2707 15 11 15C11.7293 15 12.4288 14.6839 12.9445 14.1213C13.4603 13.5587 13.75 12.7956 13.75 12V4C13.75 3.20435 13.4603 2.44129 12.9445 1.87868C12.4288 1.31607 11.7293 1 11 1V1Z" stroke="#657285" stroke-width="2" stroke-linecap="round" stroke-linejoin="round"/>
<path d="M17.4167 10V12C17.4167 13.8565 16.7406 15.637 15.5373 16.9497C14.3339 18.2625 12.7018 19 11 19C9.29819 19 7.66609 18.2625 6.46273 16.9497C5.25937 15.637 4.58333 13.8565 4.58333 12V10" stroke="#657285" stroke-width="2" stroke-linecap="round" stroke-linejoin="round"/>
<path d="M11 19V23" stroke="#657285" stroke-width="2" stroke-linecap="round" stroke-linejoin="round"/>
<path d="M7.33333 23H14.6667" stroke="#657285" stroke-width="2" stroke-linecap="round" stroke-linejoin="round"/>
</svg>
