<svg width="22" height="24" viewBox="0 0 22 24" fill="none" xmlns="http://www.w3.org/2000/svg">
<g clip-path="url(#clip0)">
<path d="M15.5833 21V19C15.5833 17.9391 15.197 16.9217 14.5094 16.1716C13.8218 15.4214 12.8891 15 11.9167 15H4.58333C3.61087 15 2.67824 15.4214 1.99061 16.1716C1.30297 16.9217 0.916666 17.9391 0.916666 19V21" stroke="#657285" stroke-width="2" stroke-linecap="round" stroke-linejoin="round"/>
<path d="M8.25 11C10.275 11 11.9167 9.20914 11.9167 7C11.9167 4.79086 10.275 3 8.25 3C6.22495 3 4.58333 4.79086 4.58333 7C4.58333 9.20914 6.22495 11 8.25 11Z" stroke="#657285" stroke-width="2" stroke-linecap="round" stroke-linejoin="round"/>
<path d="M21.0833 21V19C21.0827 18.1137 20.8123 17.2528 20.3146 16.5523C19.8168 15.8519 19.12 15.3516 18.3333 15.13" stroke="#657285" stroke-width="2" stroke-linecap="round" stroke-linejoin="round"/>
<path d="M14.6667 3.13C15.4554 3.35031 16.1545 3.85071 16.6537 4.55232C17.1529 5.25392 17.4239 6.11683 17.4239 7.005C17.4239 7.89317 17.1529 8.75608 16.6537 9.45769C16.1545 10.1593 15.4554 10.6597 14.6667 10.88" stroke="#657285" stroke-width="2" stroke-linecap="round" stroke-linejoin="round"/>
</g>
<defs>
<clipPath id="clip0">
<rect width="22" height="24" fill="white"/>
</clipPath>
</defs>
</svg>
